[
    {
      "Name": "iPhone 13 Pro",
      "Price": 999.99,
      "ImageURL": "https://itmag.ua/upload/iblock/d78/uc0hpmxpptppsyt3peof4ahug1zirp5k/186u.jpg",
      "SKU": "123456",
      "Color": "Graphite"
    },
    {
      "Name": "Dell XPS 15 PRO",
      "Price": 1499.99,
      "ImageURL": "https://content1.rozetka.com.ua/goods/images/original/326273991.jpg",
      "SKU": "987655",
      "Color": "Silver"
    },
    {
      "Name": "Fitbit Versa 3 Smartwatch",
      "Price": 179.50,
      "ImageURL": "https://hotline.ua/img/tx/381/3810057235.jpg",
      "SKU": "567890",
      "Color": "Midnight"
    },
    {
      "Name": "Sony WH-1000XM4 Headphones",
      "Price": 349.99,
      "ImageURL": "https://www.sony.ua/image/5d02da5df552836db894cead8a68f5f3?fmt=pjpeg&bgcolor=FFFFFF&bgc=FFFFFF&wid=2515&hei=1320",
      "SKU": "234567",
      "Color": "Black"
    },
    {
      "Name": "Nespresso Vertuo Coffee Maker",
      "Price": 199.00,
      "ImageURL": "https://m.media-amazon.com/images/I/717Jl4JGnZL.jpg",
      "SKU": "345678",
      "Color": "Silver"
    },
    {
      "Name": "Breville Juice Fountain Plus",
      "Price": 149.95,
      "ImageURL": "https://s.yimg.com/os/creatr-uploaded-images/2023-04/83fd2640-dd19-11ed-aafc-577b636d6b5f",
      "SKU": "456789",
      "Color": "Stainless Steel"
    },
    {
      "Name": "Human Touch Super Novo Massage Chair",
      "Price": 5999.50,
      "ImageURL": "https://m.media-amazon.com/images/I/61pPYBhhUCL.jpg",
      "SKU": "765432",
      "Color": "Brown"
    },
    {
      "Name": "Instant Pot Duo Evo Plus",
      "Price": 119.99,
      "ImageURL": "https://a.allegroimg.com/original/1135cb/a650452746079245b7cdeefc85e5/Instant-Pot-Duo-EVO-Plus-6-multicooker-10-w-1",
      "SKU": "654321",
      "Color": "Stainless Steel"
    },
    {
      "Name": "Sony Alpha A7 III Mirrorless Camera",
      "Price": 1999.95,
      "ImageURL": "https://img.moyo.ua/img/products/4135/68_1500.jpg?1692783084",
      "SKU": "987654",
      "Color": "Black"
    },
    {
      "Name": "Logitech G Pro X Gaming Mouse",
      "Price": 69.99,
      "ImageURL": "https://c.428.ua/img/3374846/3000/2000/mysh_logitech_g_pro_x_superlight_wireless_black_910-005880~3000~2024.jpg",
      "SKU": "876543",
      "Color": "Black"
    }
]